<?xml version="1.0" encoding="UTF-8" standalone="no"?>
<svg
   xmlns:dc="http://purl.org/dc/elements/1.1/"
   xmlns:cc="http://creativecommons.org/ns#"
   xmlns:rdf="http://www.w3.org/1999/02/22-rdf-syntax-ns#"
   xmlns:svg="http://www.w3.org/2000/svg"
   xmlns="http://www.w3.org/2000/svg"
   xmlns:sodipodi="http://sodipodi.sourceforge.net/DTD/sodipodi-0.dtd"
   xmlns:inkscape="http://www.inkscape.org/namespaces/inkscape"
   width="145"
   height="111"
   viewBox="0 0 145 111"
   version="1.1"
   id="svg5"
   xml:space="preserve"
   sodipodi:docname="xbox-optimized.svg"
   inkscape:version="1.0.1 (3bc2e813f5, 2020-09-07)"
   inkscape:export-filename="xbox.png"
   inkscape:export-xdpi="96"
   inkscape:export-ydpi="96"><metadata
   id="metadata65"><rdf:RDF><cc:Work
       rdf:about=""><dc:format>image/svg+xml</dc:format><dc:type
         rdf:resource="http://purl.org/dc/dcmitype/StillImage" /><dc:title></dc:title></cc:Work></rdf:RDF></metadata><sodipodi:namedview
   id="namedview7"
   pagecolor="#ffffff"
   bordercolor="#000000"
   borderopacity="0.25"
   inkscape:showpageshadow="2"
   inkscape:pageopacity="0.0"
   inkscape:pagecheckerboard="0"
   inkscape:deskcolor="#d1d1d1"
   inkscape:document-units="px"
   showgrid="false"
   inkscape:zoom="1.0052608"
   inkscape:cx="318.21198"
   inkscape:cy="107.00997"
   inkscape:window-width="1920"
   inkscape:window-height="1013"
   inkscape:window-x="0"
   inkscape:window-y="0"
   inkscape:window-maximized="1"
   inkscape:current-layer="g1778"
   showguides="false"
   inkscape:document-rotation="0"><sodipodi:guide
     position="58.069157,57.78721"
     orientation="0,-1"
     id="guide1444"
     inkscape:locked="false" /><sodipodi:guide
     position="60.902895,48.217251"
     orientation="0,-1"
     id="guide1450"
     inkscape:locked="false" /><sodipodi:guide
     position="47.805417,46.973613"
     orientation="1,0"
     id="guide1452"
     inkscape:locked="false" /><sodipodi:guide
     position="57.375377,46.74816"
     orientation="1,0"
     id="guide1454"
     inkscape:locked="false" /><sodipodi:guide
     position="28.957397,84.646924"
     orientation="1,0"
     id="guide2481"
     inkscape:locked="false" /><sodipodi:guide
     position="20.157394,75.846921"
     orientation="0,-1"
     id="guide2483"
     inkscape:locked="false" /><sodipodi:guide
     position="88.178082,63.249567"
     orientation="1,0"
     id="guide2547"
     inkscape:locked="false" /><sodipodi:guide
     position="97.72117,53.705962"
     orientation="0,-1"
     id="guide2549"
     inkscape:locked="false" /></sodipodi:namedview>
    <defs
   id="defs2"><inkscape:path-effect
   effect="join_type"
   id="path-effect1296"
   is_visible="true"
   lpeversion="1"
   linecap_type="butt"
   line_width="1.10388"
   linejoin_type="extrp_arc"
   miter_limit="100"
   attempt_force_join="true" />
        <inkscape:path-effect
   effect="mirror_symmetry"
   center_point="101.2016,69.125927"
   id="path-effect1236"
   is_visible="true"
   lpeversion="1.2"
   lpesatellites="#path399"
   mode="vertical"
   discard_orig_path="false"
   fuse_paths="false"
   oposite_fuse="false"
   split_items="true"
   split_open="false"
   link_styles="false"
   start_point="101.2016,13.462043"
   end_point="101.2016,124.78981" />
        <inkscape:path-effect
   effect="mirror_symmetry"
   center_point="101.24901,57.35136"
   id="path-effect1211"
   is_visible="true"
   lpeversion="1.2"
   lpesatellites=""
   mode="vertical"
   discard_orig_path="false"
   fuse_paths="true"
   oposite_fuse="true"
   split_items="false"
   split_open="false"
   link_styles="false"
   start_point="101.24901,1.6874759"
   end_point="101.24901,113.01524" />
        <inkscape:path-effect
   effect="mirror_symmetry"
   start_point="48.460608,81.318099"
   end_point="48.460608,185.13861"
   center_point="48.460608,133.22835"
   id="path-effect1895"
   is_visible="true"
   lpeversion="1.2"
   lpesatellites=""
   mode="vertical"
   discard_orig_path="false"
   fuse_paths="true"
   oposite_fuse="true"
   split_items="false"
   split_open="false"
   link_styles="false" />
        <inkscape:path-effect
   effect="mirror_symmetry"
   start_point="43.976555,10.730238"
   end_point="43.976555,287.70114"
   center_point="43.976555,149.21569"
   id="path-effect1794"
   is_visible="true"
   lpeversion="1.2"
   lpesatellites=""
   mode="vertical"
   discard_orig_path="false"
   fuse_paths="false"
   oposite_fuse="false"
   split_items="false"
   split_open="false"
   link_styles="false" />
        <inkscape:path-effect
   effect="mirror_symmetry"
   center_point="167.44809,18.742701"
   id="path-effect1236-7"
   is_visible="true"
   lpeversion="1.2"
   lpesatellites=""
   mode="vertical"
   discard_orig_path="false"
   fuse_paths="false"
   oposite_fuse="false"
   split_items="true"
   split_open="false"
   link_styles="false"
   start_point="167.44809,14.499372"
   end_point="167.44809,22.986029" />
        <inkscape:path-effect
   effect="mirror_symmetry"
   center_point="73.370097,-5.8002748"
   id="path-effect1211-7"
   is_visible="true"
   lpeversion="1.2"
   lpesatellites=""
   mode="vertical"
   discard_orig_path="false"
   fuse_paths="true"
   oposite_fuse="true"
   split_items="false"
   split_open="false"
   link_styles="false"
   start_point="73.370097,-61.464159"
   end_point="73.370097,49.863609" /></defs>
    <g
   id="g1778"
   inkscape:groupmode="layer"
   inkscape:label="Controller">
        
        <g
   id="base"
   transform="translate(-0.251165,1.319e-4)"><rect
     style="opacity:0.00100002;fill:#000000;stroke-width:3.13301;stroke-linecap:round;stroke-opacity:0.598326"
     id="rect1685"
     width="145.0994"
     height="111.32777"
     x="0.251165"
     y="-0.0001319" /><rect
     style="opacity:1;fill:#000000;stroke-width:3.2738;stroke-linecap:round;stroke-opacity:0.598326"
     id="rect1572"
     width="10"
     height="10"
     x="47.251163"
     y="52.999866" /><path
     id="rect908"
     transform="matrix(0.765306,0,0,1.07231,35.663972,-87.198343)"
     d="m 83.894733,87.604329 c 10.491578,-1.008536 25.459807,-2.357184 33.247957,-1.512505 19.84007,2.151793 17.88022,7.812276 21.78414,20.410236 3.33277,23.2019 3.80644,31.08118 3.38972,56.12705 -1.27734,8.64321 -0.63866,18.77388 -14.76867,21.12968 -3.17205,0.52885 -12.56057,2.3262 -20.34433,-1.99627 -11.687294,-6.49018 -20.731442,-31.04437 -27.862715,-30.94653 l -30.880228,0.42368 -30.880229,-0.42368 c -7.131273,-0.0978 -16.1754208,24.45635 -27.862715,30.94653 -7.78376,4.32247 -17.17228,2.52512 -20.34433,1.99627 -14.13001,-2.3558 -13.49133,-12.48647 -14.76867,-21.12968 -0.41672,-25.04587 0.05695,-32.92515 3.38972,-56.12705 3.90392,-12.59796 1.94407,-18.258443 21.78414,-20.410236 7.78815,-0.844679 22.7563792,0.503969 33.247957,1.512505 11.506518,0.937466 23.411619,1.543477 35.434127,1.613487 12.022507,-0.07001 23.927609,-0.676021 35.434126,-1.613487 z"
     style="opacity:1;fill:none;fill-rule:nonzero;stroke:#000000;stroke-width:1.10388;stroke-dasharray:none;stroke-opacity:1;paint-order:stroke markers fill"
     sodipodi:nodetypes="csccsssccc"
     inkscape:label="Controller"
     inkscape:original-d="m 83.894733,87.604329 c 10.491578,-1.008536 25.459807,-2.357184 33.247957,-1.512505 19.84007,2.151793 17.88022,7.812276 21.78414,20.410236 3.33277,23.2019 3.80644,31.08118 3.38972,56.12705 -1.27734,8.64321 -0.63866,18.77388 -14.76867,21.12968 -3.17205,0.52885 -12.56057,2.3262 -20.34433,-1.99627 -11.687294,-6.49018 -20.731442,-31.04437 -27.862715,-30.94653 l -31.160402,0.42752 0.01731,-62.024249 c 12.111831,-0.06264 24.106618,-0.670634 35.69699,-1.614932 z"
     inkscape:path-effect="#path-effect1895"
     class="UnoptimicedTransforms" /><path
     style="fill:none;stroke:#000000;stroke-width:0.5;stroke-dasharray:none;stroke-opacity:1;paint-order:stroke markers fill"
     d="M 168.93835,13.846894 C 168.44703,12.332547 168.35033,10.846287 161.46266,8.8767 155.7507,6.542471 145.93664,7.3382242 137.70098,7.091929 L 101.24901,9.9489967 64.797039,7.091929 c -8.23566,0.2462952 -18.04972,-0.549458 -23.76168,1.784771 -6.88767,1.969587 -6.98437,3.455847 -7.47569,4.970194 l -1.79185,6.011897 c 14.593832,-7.101472 57.492939,-4.288688 69.481191,-3.985553 11.98825,-0.303135 54.88736,-3.115919 69.48119,3.985553 z"
     id="path1177"
     sodipodi:nodetypes="ccccccc"
     inkscape:path-effect="#path-effect1211"
     inkscape:original-d="M 168.93835,13.846894 C 168.44703,12.332547 168.35033,10.846287 161.46266,8.8767 155.7507,6.542471 145.93664,7.3382242 137.70098,7.091929 l -39.117077,3.065956 c 0.433965,12.900303 0.201477,5.712631 0.200121,5.726191 6.386716,0.282055 56.020376,-3.774903 71.946176,3.974715 z"
     class="UnoptimicedTransforms"
     transform="matrix(0.96957708,0,0,1,-25.417554,-1.6876078)"
     inkscape:label="Controller 3D Line" /><path
     style="fill:none;stroke:#000000;stroke-width:0.5;stroke-dasharray:none;stroke-opacity:1;paint-order:stroke markers fill"
     d="M 97.519863,13.059575 C 109.98622,9.2849122 128.21083,1.0689357 146.09468,-12.928929 c 0,0 -20.87902,17.5363836 -48.574817,25.988504 z m -48.299534,0 C 36.753972,9.2849122 18.529362,1.0689357 0.64551203,-12.928929 c 0,0 20.87901997,17.5363836 48.57481697,25.988504 z"
     id="path1177-9"
     sodipodi:nodetypes="ccc"
     inkscape:path-effect="#path-effect1211-7"
     inkscape:original-d="M 97.519863,13.059575 C 109.98622,9.2849122 128.21083,1.0689357 146.09468,-12.928929 c 0,0 -20.87902,17.5363836 -48.574817,25.988504 z"
     class="UnoptimicedTransforms"
     transform="matrix(0.97862477,0,0,1,0.94937166,61.464027)"
     inkscape:label="Controller Arm Lines" /></g></g>
    <g
   id="right-trigger"
   inkscape:label="Right Trigger Button"><path
     style="fill:#000000;fill-opacity:1;stroke:none;stroke-width:0.665;stroke-dasharray:none;stroke-dashoffset:0;stroke-opacity:1;paint-order:stroke markers fill"
     d="m 137.96607,18.866364 3.7536,-4.366992 c 7.58961,-1.027452 9.29901,-1.737567 23.10544,0.09354 2.39293,3.258854 2.06579,5.691714 2.62298,8.393113 l -11.44083,-4.669119 z"
     id="path1170"
     sodipodi:nodetypes="cccccc"
     inkscape:path-effect="#path-effect1236"
     inkscape:original-d="m 137.96607,18.866364 3.7536,-4.366992 c 7.58961,-1.027452 9.29901,-1.737567 23.10544,0.09354 2.39293,3.258854 2.06579,5.691714 2.62298,8.393113 l -11.44083,-4.669119 z"
     class="UnoptimicedTransforms"
     transform="matrix(0.96878214,0,0,1,-25.542297,-13.462043)"
     inkscape:label="path2" /><path
     transform="matrix(-0.96878214,0,0,1,170.64169,-13.462043)"
     class="UnoptimicedTransforms"
     id="path399"
     d="m 137.96607,18.866364 3.7536,-4.366992 c 7.58961,-1.027452 9.29901,-1.737567 23.10544,0.09354 2.39293,3.258854 2.06579,5.691714 2.62298,8.393113 l -11.44083,-4.669119 z"
     style="fill:#000000;fill-opacity:1;stroke:none;stroke-width:0.665;stroke-dasharray:none;stroke-dashoffset:0;stroke-opacity:1;paint-order:stroke markers fill" /><path
     transform="matrix(-0.96878214,0,0,1,170.5423,-13.462043)"
     id="mirror-path-effect1236"
     d="m 137.96607,18.866364 3.7536,-4.366992 c 7.58961,-1.027452 9.29901,-1.737567 23.10544,0.09354 2.39293,3.258854 2.06579,5.691714 2.62298,8.393113 l -11.44083,-4.669119 z"
     style="fill:#000000;fill-opacity:1;stroke:none;stroke-width:0.665;stroke-dasharray:none;stroke-dashoffset:0;stroke-opacity:1;paint-order:stroke markers fill" /></g>
    <g
   id="right-shoulder"
   inkscape:label="Right Shoulder Button"><path
     style="fill:#000000;fill-opacity:1;stroke:none;stroke-width:0.265;stroke-dasharray:none;stroke-dashoffset:0;stroke-opacity:1;paint-order:stroke markers fill"
     d="m 138.02281,18.989013 c -1.49887,-2.333112 -1.30922,-4.371089 -0.18903,-5.831181 9.87144,0.44718 22.57168,1.299481 29.48202,4.119661 1.25133,1.275523 2.31578,3.374293 3.10984,6.664226 -5.34067,-2.913596 -18.61848,-4.76952 -32.40283,-4.952706 z"
     id="path1170-5"
     sodipodi:nodetypes="ccccc"
     transform="matrix(0.969476,0,0,1,-25.5302,-7.75351)"
     inkscape:label="path" /></g>
    <g
   id="g1543"
   inkscape:groupmode="layer"
   inkscape:label="Start Button"
   transform="translate(-26.4991,-13.462)"><path
     id="mid-right"
     style="stroke-width:0.368834;paint-order:stroke markers fill"
     inkscape:label="Start Button Graphic"
     transform="matrix(1.0845,0,0,1.0845,56.1308,19.3045)"
     d="m 52.826158,20.45579 h 5.407171 c 1.140561,0 2.058774,0.918213 2.058774,2.058774 v 0.255477 c 0,1.140561 -0.918213,2.058774 -2.058774,2.058774 h -5.407171 c -1.140561,0 -2.058774,-0.918213 -2.058774,-2.058774 v -0.255477 c 0,-1.140561 0.918213,-2.058774 2.058774,-2.058774 z" /></g>
    <g
   id="g1540"
   inkscape:groupmode="layer"
   inkscape:label="Back Button"
   transform="translate(-26.4991,-13.462)"><path
     id="mid-left"
     style="stroke-width:0.368834;paint-order:stroke markers fill"
     inkscape:label="Back Button Graphic"
     transform="matrix(1.0845,0,0,1.0845,56.1308,19.3045)"
     d="m 20.913875,20.328917 h 5.407171 c 1.140561,0 2.058774,0.918213 2.058774,2.058774 v 0.255477 c 0,1.140561 -0.918213,2.058774 -2.058774,2.058774 h -5.407171 c -1.140561,0 -2.058774,-0.918213 -2.058774,-2.058774 v -0.255477 c 0,-1.140561 0.918213,-2.058774 2.058774,-2.058774 z" /></g>
    <g
   id="g3162-9"
   transform="matrix(1.0845,0,0,1.0845,33.1779,5.84246)"
   inkscape:label="Right Axis"
   inkscape:groupmode="layer"><path
     id="r-pad-outline"
     style="fill:none;stroke:#000000;stroke-width:0.578782;paint-order:stroke markers fill"
     inkscape:label="Right Axis Base"
     d="M 63.439355,47.744902 A 12.724576,12.724575 0 0 1 50.71478,60.469478 12.724576,12.724575 0 0 1 37.990204,47.744902 12.724576,12.724575 0 0 1 50.71478,35.020329 12.724576,12.724575 0 0 1 63.439355,47.744902 Z" /><path
     id="r-pad"
     style="fill:#000000;fill-opacity:1;stroke:none;stroke-width:0.4;stroke-dasharray:none;stroke-dashoffset:0;stroke-opacity:1;paint-order:stroke markers fill"
     d="m 50.714781,38.944898 a 8.7998686,8.7998676 0 0 0 -8.800003,8.800004 8.7998686,8.7998676 0 0 0 8.800003,8.800003 8.7998686,8.7998676 0 0 0 8.799527,-8.800003 8.7998686,8.7998676 0 0 0 -8.799527,-8.800004 z m -1.733507,4.342346 h 0.609444 0.647563 c 0.5334,0 0.973725,0.08904 1.320858,0.26684 0.347133,0.169333 0.601057,0.439899 0.761924,0.812432 0.169333,0.364066 0.253974,0.842552 0.253974,1.435218 0,0.524933 -0.0636,0.965259 -0.1906,1.320859 -0.118533,0.347133 -0.287815,0.626497 -0.507949,0.838163 -0.126484,0.126485 -0.266266,0.231121 -0.416937,0.318302 0.111839,0.148043 0.237905,0.346303 0.378817,0.596102 0.186267,0.321733 0.359948,0.736618 0.520815,1.244618 0.160866,0.507999 0.262627,1.117608 0.30496,1.828807 0,0.09313 -0.02544,0.160656 -0.07624,0.202989 -0.0508,0.03387 -0.199041,0.05099 -0.444575,0.05099 -0.0762,0 -0.169162,-0.0044 -0.279229,-0.01287 -0.1016,0 -0.211681,-0.0039 -0.330214,-0.01239 -0.04233,-0.728132 -0.131374,-1.337741 -0.26684,-1.828807 -0.127,-0.499533 -0.26692,-0.893377 -0.41932,-1.181244 -0.134718,-0.277361 -0.253756,-0.477568 -0.358805,-0.606584 -0.07824,0.0061 -0.157295,0.0095 -0.237773,0.0095 h -0.45744 v 3.40364 c 0,0.06773 -0.01664,0.114214 -0.05051,0.139614 -0.0254,0.0254 -0.110042,0.04252 -0.253975,0.05099 -0.143933,0.0085 -0.385614,0.01286 -0.72428,0.01286 v -8.687072 l 0.02573,-0.101495 c 0.0254,-0.06773 0.089,-0.101494 0.1906,-0.101494 z m 0.812433,0.901538 v 3.428894 h 0.558934 c 0.237067,0 0.431789,-0.0592 0.584189,-0.177734 0.160867,-0.127 0.283668,-0.325645 0.368335,-0.596578 0.08467,-0.2794 0.126749,-0.643882 0.126749,-1.092615 0,-0.321733 -0.02936,-0.601097 -0.08863,-0.838164 -0.05927,-0.237066 -0.164949,-0.41467 -0.317349,-0.533203 -0.143933,-0.127 -0.343055,-0.1906 -0.597055,-0.1906 z" /></g>
    <g
   id="g1031"
   inkscape:label="D-pad Up"
   inkscape:groupmode="layer"
   transform="translate(-26.4991,-13.462)"><path
     id="up"
     style="fill:#000000;fill-opacity:1;stroke:none;stroke-width:0.263543;stroke-dasharray:none;stroke-dashoffset:0;stroke-opacity:1;paint-order:stroke markers fill"
     d="m 74.315558,59.328068 c -0.452184,0 -0.816459,0.359 -0.816459,0.805298 -10e-7,6.552172 0,0 -10e-7,6.552172 10,0 0,0 10,0 v -6.552172 c 0,-0.446298 -0.364276,-0.805298 -0.816459,-0.805298 z m 4.121172,1.700666 2.760948,3.888454 -5.397159,0.06822 z"
     sodipodi:nodetypes="scccssscccc" /></g>
    <g
   id="g1031-3"
   inkscape:label="D-pad Right"
   inkscape:groupmode="layer"><path
     id="right"
     style="fill:#000000;fill-opacity:1;stroke:none;stroke-width:0.264115;stroke-dasharray:none;stroke-dashoffset:0;stroke-opacity:1;paint-order:stroke markers fill"
     d="m 56.744469,52.999998 v 10 c 6.580644,0 0,0 6.580644,0 0.448237,0 0.809333,-0.363736 0.809333,-0.815918 v -8.367623 c 0,-0.452183 -0.361096,-0.816459 -0.809333,-0.816459 -6.580644,0 0,0 -6.580644,0 z m 1.708056,2.301961 3.973865,2.635671 -3.905351,2.760948 z"
     sodipodi:nodetypes="cccsscccccc" /></g>
    <g
   id="g1031-3-5"
   inkscape:label="D-pad Down"
   inkscape:groupmode="layer"><path
     id="down"
     style="fill:#000000;fill-opacity:1;stroke:none;stroke-width:0.267897;stroke-dasharray:none;stroke-dashoffset:0;stroke-opacity:1;paint-order:stroke markers fill"
     d="m 46.999998,62.531316 c 2e-6,6.77032 0,0 2e-6,6.77032 0,0.461167 0.364275,0.832678 0.816458,0.832678 h 8.367081 c 0.452183,0 0.816459,-0.371511 0.816459,-0.832678 0,-6.77032 0,0 0,-6.77032 z m 7.69858,1.757185 -2.636211,4.08849 -2.760947,-4.018001 z"
     sodipodi:nodetypes="ccssccccccc" /></g>
    <g
   id="g1031-3-5-6"
   inkscape:label="D-pad Left"
   inkscape:groupmode="layer"><path
     id="left"
     style="fill:#000000;fill-opacity:1;stroke:none;stroke-width:0.262837;stroke-dasharray:none;stroke-dashoffset:0;stroke-opacity:1;paint-order:stroke markers fill"
     d="m 40.66858,52.999999 c -0.443908,0 -0.802041,0.363079 -0.802691,0.815261 l -0.01203,8.367613 c -6.46e-4,0.452184 0.356436,0.817114 0.800345,0.817115 l 6.528121,10e-6 c 0.0022,-10 0.0022,0 0.0022,-10 z m 4.754374,2.309059 0.0601,5.396715 -3.931689,-2.642102 z"
     sodipodi:nodetypes="ssssccscccc" /></g>
    <g
   id="g1023"
   inkscape:label="Guide Button"
   inkscape:groupmode="layer"><path
   id="path1377-2"
   style="fill:none;stroke:#000000;stroke-width:0.570374;paint-order:stroke markers fill"
   d="m 79.886682,30.390124 a 7.5715833,7.6708021 0 0 1 -7.571586,7.670803 7.5715833,7.6708021 0 0 1 -7.571583,-7.670803 7.5715833,7.6708021 0 0 1 7.571583,-7.670802 7.5715833,7.6708021 0 0 1 7.571586,7.670802 z" /><path
   id="center"
   style="fill:#000000;fill-opacity:1;stroke:none;stroke-width:0.5;stroke-dasharray:none;stroke-dashoffset:0;stroke-opacity:1;paint-order:stroke markers fill"
   inkscape:label="path1377"
   d="m 72.321721,23.701774 a 6.6807289,6.6807289 0 0 0 -1.028878,0.08062 v 5.380033 l 2.639628,-5.263245 a 6.6807289,6.6807289 0 0 0 -1.61075,-0.197404 z m -3.726387,1.137399 a 6.6807289,6.6807289 0 0 0 -2.954342,5.543331 6.6807289,6.6807289 0 0 0 2.954342,5.542814 z m 7.672917,0.152962 -2.74092,5.288049 3.36672,4.97179 a 6.6807289,6.6807289 0 0 0 2.1084,-4.86947 6.6807289,6.6807289 0 0 0 -2.7342,-5.390369 z m -4.975408,6.421313 v 5.568653 a 6.6807289,6.6807289 0 0 0 1.028878,0.08113 6.6807289,6.6807289 0 0 0 2.1177,-0.349333 z" />
        </g>
    <g
   id="g1605"
   transform="matrix(0.8897,0,0,0.8897,-14.4359,-13.0402)"
   inkscape:label="Y Button"
   inkscape:groupmode="layer"><path
     id="y-button"
     style="stroke:none;stroke-width:0.490315;paint-order:stroke markers fill"
     d="m 148.22678,36.999864 a 6.551332,6.551332 0 0 0 -6.55118,6.551179 6.551332,6.551332 0 0 0 6.55118,6.55118 6.551332,6.551332 0 0 0 6.55176,-6.55118 6.551332,6.551332 0 0 0 -6.55176,-6.551179 z m -0.9392,2.665428 0.44434,1.520612 c 0.0518,0.177639 0.10748,0.385218 0.16669,0.622069 0.0666,0.229449 0.12593,0.458834 0.17774,0.688283 0.0592,0.22945 0.1034,0.436449 0.13301,0.621488 0.037,0.177639 0.0594,0.307158 0.0668,0.388576 0.007,-0.08142 0.0292,-0.210937 0.0662,-0.388576 0.037,-0.185039 0.0818,-0.392038 0.13359,-0.621488 l 0.17715,-0.688283 c 0.0666,-0.236851 0.12592,-0.44443 0.17774,-0.622069 l 0.38857,-1.354495 c 0.0148,-0.05921 0.0372,-0.09977 0.0668,-0.121974 0.037,-0.0222 0.12233,-0.03311 0.25556,-0.03311 0.13323,-0.0074 0.35113,-0.01104 0.6546,-0.01104 l -1.49854,4.564742 v 3.029027 c 0,0.05921 -0.0151,0.09977 -0.0447,0.121975 -0.0222,0.0222 -0.096,0.03732 -0.22188,0.04472 -0.11842,0.0074 -0.32905,0.01104 -0.63252,0.01104 v -3.159714 l -1.53223,-4.467743 c -0.0148,-0.05181 -0.0112,-0.0851 0.011,-0.0999 0.0296,-0.0222 0.11857,-0.03311 0.2666,-0.03311 0.14803,-0.0074 0.39559,-0.01104 0.74346,-0.01104 z" /></g>
    <g
   id="g1605-6"
   transform="matrix(0.8897,0,0,0.8897,-26.5296,-2.30254)"
   inkscape:label="X Button"
   inkscape:groupmode="layer"><path
     id="x-button"
     style="stroke:none;stroke-width:0.490315;paint-order:stroke markers fill"
     d="m 148.22719,36.999471 a 6.551332,6.551332 0 0 0 -6.55118,6.551761 6.551332,6.551332 0 0 0 6.55118,6.55118 6.551332,6.551332 0 0 0 6.55118,-6.55118 6.551332,6.551332 0 0 0 -6.55118,-6.551761 z m -0.89215,2.665429 0.45537,1.254592 c 0.11842,0.310867 0.22192,0.618312 0.31074,0.921777 0.0962,0.296064 0.17428,0.5442 0.2335,0.744043 0.0592,-0.199843 0.13669,-0.451613 0.23291,-0.755079 0.10362,-0.303465 0.21076,-0.607276 0.32178,-0.910741 l 0.42226,-1.109966 c 0.0222,-0.04441 0.044,-0.0777 0.0662,-0.0999 0.0296,-0.0222 0.1113,-0.03311 0.24453,-0.03311 0.13323,-0.0074 0.35534,-0.01162 0.66621,-0.01162 l -1.43639,3.68885 1.59147,3.927571 c 0.0296,0.04441 0.0375,0.08133 0.0226,0.110939 -0.0148,0.02961 -0.0523,0.04472 -0.11152,0.04472 h -0.97695 l -0.61046,-1.499122 c -0.11842,-0.310867 -0.2334,-0.617731 -0.34443,-0.921196 -0.0972,-0.291575 -0.17861,-0.524583 -0.24975,-0.718487 -0.0651,0.193881 -0.14565,0.42698 -0.24976,0.718487 -0.10362,0.303465 -0.22166,0.610329 -0.35489,0.921196 l -0.61103,1.388183 c -0.0444,0.07402 -0.11099,0.110939 -0.19981,0.110939 h -0.77715 l 1.69486,-4.020504 -1.39515,-3.595918 c -0.0222,-0.05181 -0.0186,-0.08873 0.011,-0.110939 0.037,-0.0222 0.13324,-0.03311 0.28867,-0.03311 0.15543,-0.0074 0.4072,-0.01162 0.75508,-0.01162 z" /></g>
    <g
   id="g1605-1"
   transform="matrix(0.8897,0,0,0.8897,-2.34223,-2.30254)"
   inkscape:label="B Button"
   inkscape:groupmode="layer"><path
     id="b-button"
     style="stroke:none;stroke-width:0.490315;paint-order:stroke markers fill"
     d="m 148.22693,36.999471 a 6.551332,6.551332 0 0 0 -6.55118,6.551761 6.551332,6.551332 0 0 0 6.55118,6.55118 6.551332,6.551332 0 0 0 6.55118,-6.55118 6.551332,6.551332 0 0 0 -6.55118,-6.551761 z m -1.45439,2.665429 h 1.09951 c 0.22205,0 0.44358,0.02602 0.66563,0.07783 0.22205,0.04441 0.42236,0.129738 0.6,0.255565 0.17763,0.118425 0.32169,0.288502 0.43271,0.510549 0.11103,0.222048 0.1667,0.514375 0.1667,0.877053 0,0.407088 -0.0557,0.736338 -0.1667,0.987992 -0.11102,0.251654 -0.24781,0.444116 -0.41064,0.577345 -0.16284,0.125827 -0.32565,0.200253 -0.48848,0.222458 0.12583,0.0074 0.26261,0.03706 0.41065,0.08887 0.15543,0.04441 0.30007,0.125523 0.43329,0.243948 0.14064,0.111024 0.2514,0.270198 0.33282,0.477442 0.0888,0.207245 0.13301,0.477186 0.13301,0.810258 0,0.37008 -0.0369,0.69991 -0.11094,0.988572 -0.0666,0.288663 -0.16648,0.536218 -0.29971,0.743463 -0.12582,0.207244 -0.27773,0.381535 -0.45537,0.522166 -0.17764,0.133228 -0.3701,0.233094 -0.57734,0.299708 -0.20725,0.05921 -0.42878,0.08887 -0.66563,0.08887 h -1.39922 v -7.560662 c 0,-0.06661 0.0188,-0.118655 0.0558,-0.155663 0.0444,-0.03701 0.12552,-0.05576 0.24395,-0.05576 z m 0.62207,0.799802 v 2.375594 h 0.54365 c 0.15544,0 0.29222,-0.04419 0.41065,-0.13301 0.12583,-0.08882 0.22206,-0.229822 0.28867,-0.422263 0.074,-0.192441 0.11152,-0.436363 0.11152,-0.732426 0,-0.303466 -0.0411,-0.53285 -0.12255,-0.688284 -0.074,-0.155433 -0.17389,-0.258933 -0.29971,-0.310744 -0.12583,-0.05921 -0.25898,-0.08887 -0.39961,-0.08887 z m 0,3.152745 v 3.031351 h 0.49951 c 0.14063,0 0.27015,-0.03329 0.38857,-0.0999 0.12583,-0.06661 0.2366,-0.170695 0.33282,-0.311325 0.0962,-0.148032 0.17065,-0.332644 0.22246,-0.554692 0.0592,-0.222048 0.0883,-0.49257 0.0883,-0.810839 0,-0.288662 -0.0254,-0.514412 -0.0773,-0.677247 -0.0444,-0.170237 -0.1152,-0.296122 -0.21142,-0.37754 -0.0888,-0.08882 -0.19595,-0.143912 -0.32178,-0.166117 -0.12583,-0.0222 -0.26261,-0.03369 -0.41065,-0.03369 z" /></g>
    <g
   id="g1605-1-9"
   inkscape:label="A Button"
   inkscape:groupmode="layer"
   transform="matrix(0.8897,0,0,0.8897,-14.4359,8.40206)"><path
     id="a-button"
     style="stroke:none;stroke-width:0.490315;paint-order:stroke markers fill"
     d="m 148.22678,36.999666 a 6.551332,6.551332 0 0 0 -6.55118,6.55118 6.551332,6.551332 0 0 0 6.55118,6.55118 6.551332,6.551332 0 0 0 6.55176,-6.55118 6.551332,6.551332 0 0 0 -6.55176,-6.55118 z m -0.0465,2.637548 c 0.074,0 0.14786,0.0036 0.22187,0.01104 0.0814,0.0074 0.148,0.01525 0.19981,0.02265 l 1.9876,7.604806 c 0.0148,0.05921 -0.004,0.107618 -0.0558,0.144626 -0.0444,0.02961 -0.15518,0.04414 -0.33282,0.04414 -0.0666,0 -0.14467,-0.0036 -0.23349,-0.01103 -0.0814,0 -0.18128,-0.0036 -0.29971,-0.01104 l -0.47163,-1.976564 h -1.92197 l -0.42633,1.820901 c -0.0148,0.05921 -0.0445,0.103985 -0.0889,0.133591 -0.0444,0.02961 -0.15518,0.04414 -0.33282,0.04414 -0.0592,0 -0.14091,-0.0036 -0.24453,-0.01103 -0.10362,-0.0074 -0.21076,-0.01467 -0.32178,-0.02207 l 1.97598,-7.638493 c 0.0222,-0.103623 0.13719,-0.155663 0.34444,-0.155663 z m 0.0552,1.288281 c -0.0148,0.177638 -0.0445,0.388271 -0.0889,0.632523 -0.037,0.236851 -0.0812,0.484988 -0.13301,0.744044 -0.0518,0.259055 -0.11112,0.51446 -0.17774,0.766114 l -0.3694,1.576372 h 1.53397 l -0.37638,-1.576372 c -0.0592,-0.251654 -0.11431,-0.507059 -0.16612,-0.766114 -0.0518,-0.259056 -0.10021,-0.507193 -0.14462,-0.744044 -0.037,-0.244252 -0.063,-0.454885 -0.0778,-0.632523 z" /></g>
    <g
   id="g3162"
   inkscape:label="Left Axis"
   inkscape:groupmode="layer"><path
     id="l-pad-outline"
     style="fill:none;stroke:#000000;stroke-width:0.578782;paint-order:stroke markers fill"
     inkscape:label="Left Axis Base"
     d="M 41.681972,35.480611 A 12.724576,12.724575 0 0 1 28.957396,48.205186 12.724576,12.724575 0 0 1 16.23282,35.480611 12.724576,12.724575 0 0 1 28.957396,22.756036 12.724576,12.724575 0 0 1 41.681972,35.480611 Z" /><path
     id="l-pad"
     style="fill:#000000;fill-opacity:1;stroke:none;stroke-width:0.4;stroke-dasharray:none;stroke-dashoffset:0;stroke-opacity:1;paint-order:stroke markers fill"
     d="m 28.957396,26.680846 a 8.7998686,8.7998676 0 0 0 -8.800003,8.800003 8.7998686,8.7998676 0 0 0 8.800003,8.799527 8.7998686,8.7998676 0 0 0 8.800003,-8.799527 8.7998686,8.7998676 0 0 0 -8.800003,-8.800003 z m -0.571323,4.354734 v 7.925149 h 2.184276 v 0.761924 c 0,0.08467 -0.02104,0.139469 -0.06338,0.164869 -0.03387,0.0254 -0.08035,0.03812 -0.139614,0.03812 h -3.022917 v -8.597967 c 0,-0.09313 0.01712,-0.160656 0.05099,-0.202989 0.03387,-0.04233 0.122907,-0.06777 0.26684,-0.07624 0.143933,-0.0085 0.385137,-0.01287 0.723804,-0.01287 z" /></g>
    <g
   id="g448"
   inkscape:groupmode="layer"
   inkscape:label="Left Trigger Button"><path
     transform="matrix(-0.96878214,0,0,1,170.64169,-13.462043)"
     class="UnoptimicedTransforms"
     id="left-trigger"
     d="m 137.96607,18.866364 3.7536,-4.366992 c 7.58961,-1.027452 9.29901,-1.737567 23.10544,0.09354 2.39293,3.258854 2.06579,5.691714 2.62298,8.393113 l -11.44083,-4.669119 z"
     style="fill:#000000;fill-opacity:1;stroke:none;stroke-width:0.665;stroke-dasharray:none;stroke-dashoffset:0;stroke-opacity:1;paint-order:stroke markers fill" /></g>
    <g
   id="g445"
   inkscape:groupmode="layer"
   inkscape:label="Left Shoulder Button"><path
     transform="matrix(-0.969476,0,0,1,170.6296,-7.75351)"
     id="left-shoulder"
     d="m 138.02281,18.989013 c -1.49887,-2.333112 -1.30922,-4.371089 -0.18903,-5.831181 9.87144,0.44718 22.57168,1.299481 29.48202,4.119661 1.25133,1.275523 2.31578,3.374293 3.10984,6.664226 -5.34067,-2.913596 -18.61848,-4.76952 -32.40283,-4.952706 z"
     style="fill:#000000;fill-opacity:1;stroke:none;stroke-width:0.265;stroke-dasharray:none;stroke-dashoffset:0;stroke-opacity:1;paint-order:stroke markers fill" /></g></svg>
